music recommendation system
…
## # A tibble: 10 x 3
##   source_system_tab   count mean_target
##   <chr>               <int>       <dbl>
## 1 my library        3684730       0.620
## 2 settings             2200       0.591
## 3 ""                  18371       0.537
## 4 null                 6478       0.434
## 5 explore            167949       0.422
## #  with 5 more rows
…
## # A tibble: 21 x 3
##   source_screen_name    count mean_target
##   <chr>                 <int>       <dbl>
## 1 Payment                  12       0.667
## 2 My library            75980       0.657
## 3 Local playlist more 3228202       0.637
## 4 My library_Search      6451       0.611
## 5 Discover Chart       213658       0.517
## #  with 16 more rows
…
## # A tibble: 13 x 3
##   source_type              count mean_target
##   <chr>                    <int>       <dbl>
## 1 local-playlist         1079503       0.658
## 2 local-library          2261399       0.632
## 3 artist                    3038       0.573
## 4 ""                       21539       0.525
## 5 topic-article-playlist   11194       0.494
## #  with 8 more rows

Song count and User count vs target

Song count vs Target

target_vs_colcount(train, "song_id", "Song Occurence", "Target", "Song Occurence vs Target")

## # A tibble: 1,798 x 3
##   occurence no_of_items avg_target
##       <int>       <int>      <dbl>
## 1         1      166766      0.378
## 2         2       48444      0.379
## 3         3       26319      0.386
## 4         4       16789      0.385
## 5         5       12023      0.388
## #  with 1,793 more rows
## # A tibble: 1,798 x 3
##   occurence no_of_items avg_target
##       <int>       <int>      <dbl>
## 1      2752           1      0.851
## 2     13293           1      0.794
## 3     13973           1      0.779
## 4      6241           1      0.766
## 5     12855           1      0.763
## #  with 1,793 more rows
…
User count vs Target

If the user occurs more in the train data set (frequent listener) then it does not mean that they are more probable to repeat, given by the flat trend.

target_vs_colcount(train, "msno", "User Occurence", "Target", "User Occurence vs Target")

## # A tibble: 1,564 x 3
##   occurence no_of_items avg_target
##       <int>       <int>      <dbl>
## 1         1         932      0.162
## 2         2         660      0.164
## 3         3         558      0.130
## 4         4         435      0.212
## 5         5         406      0.177
## #  with 1,559 more rows
## # A tibble: 1,564 x 3
##   occurence no_of_items avg_target
##       <int>       <int>      <dbl>
## 1      1109           1      0.985
## 2      1013           1      0.880
## 3      2091           1      0.868
## 4      1742           1      0.863
## 5       820           1      0.855
## #  with 1,559 more rows
…
## # A tibble: 95 x 2
## # Groups:   bd [95]
##      bd     n
##   <int> <int>
## 1     0 19932
## 2    22   751
## 3    27   750
## 4    24   740
## 5    26   719
## #  with 90 more rows
…
## # A tibble: 21 x 2
## # Groups:   city [21]
##    city     n
##   <int> <int>
## 1     1 19445
## 2    13  3395
## 3     5  2634
## 4     4  1732
## 5    15  1525
## #  with 16 more rows
…
## # A tibble: 6 x 2
## # Groups:   registered_via [6]
##   registered_via     n
##            <int> <int>
## 1              4 11392
## 2              7  9433
## 3              9  8628
## 4              3  4879
## 5             13    70
## #  with 1 more row
…
Signup vs Expiration

#members_date_count(members, "registration_init_time", "Signup Date", "Number of Users", "Signup vs User Count")
reg_count <- members %>% 
  group_by(month = month(registration_init_time), year = year(registration_init_time)) %>% 
  count() %>% 
  ungroup %>% 
  mutate(date = as.Date(paste(as.character(year), as.character(month), '01', sep='-'))) %>% 
  arrange(desc(n)) %>% 
  print

## # A tibble: 155 x 4
##   month  year     n date      
##   <dbl> <dbl> <int> <date>    
## 1     1  2017  2573 2017-01-01
## 2    12  2016  2545 2016-12-01
## 3     2  2017  2109 2017-02-01
## 4    11  2016  1432 2016-11-01
## 5    10  2016   978 2016-10-01
## #  with 150 more rows

exp_count <- members %>% 
  group_by(month = month(expiration_date), year = year(expiration_date)) %>% 
  count() %>% 
  ungroup %>% 
  mutate(date = as.Date(paste(as.character(year), as.character(month), '01', sep='-'))) %>% 
  arrange(desc(n)) %>% 
  print

## # A tibble: 138 x 4
##   month  year     n date      
##   <dbl> <dbl> <int> <date>    
## 1     9  2017 10681 2017-09-01
## 2    10  2017  4924 2017-10-01
## 3    12  2016  2407 2016-12-01
## 4     1  2017  2260 2017-01-01
## 5     2  2017  1918 2017-02-01
## #  with 133 more rows
…
Top 100 Language

language_count <- top_100(songs, "language")

## # A tibble: 11 x 2
## # Groups:   language [11]
##   language       n
##      <dbl>   <int>
## 1       52 1336694
## 2       -1  639467
## 3        3  106295
## 4       17   92518
## 5       24   41744
## #  with 6 more rows
…
36373songs have same artist and lyricist name.

Top Genres

genre_count <- songs %>% 
  separate(genre_ids, c("one", "two", "three", "four", "five", "six", "seven", "eight"), extra="merge") %>% 
  select(one:eight)%>% 
  gather(one:eight, key="nth_id", value="genre_ids", na.rm=TRUE) %>% 
  group_by(genre_ids) %>% 
  count %>% 
  arrange(desc(n)) %>% 
  print()

## # A tibble: 192 x 2
## # Groups:   genre_ids [192]
##   genre_ids      n
##   <chr>      <int>
## 1 465       589220
## 2 958       182836
## 3 1609      177258
## 4 2022      176531
## 5 2122      149608
## #  with 187 more rows
…
Source system tab

Training set had more records from my library compared to test.

test_train_plot(train, test, col_name = "source_system_tab", 'Source system tab', 'Test/Train record Count')

## # A tibble: 10 x 4
##   source_system_tab test_cnt train_cnt ratio
##   <chr>                <int>     <int> <dbl>
## 1 my library         1019492   3684730 0.277
## 2 ""                    5096     18371 0.277
## 3 settings               633      2200 0.288
## 4 notification          2124      6185 0.343
## 5 explore              66023    167949 0.393
## #  with 5 more rows
…
Source screen name

test_train_plot(train, test, col_name = "source_screen_name", "Source Screen Name", "Test/Train Count")

## # A tibble: 23 x 4
##   source_screen_name  test_cnt train_cnt ratio
##   <chr>                  <int>     <int> <dbl>
## 1 Local playlist more   845115   3228202 0.262
## 2 Concert                   13        47 0.277
## 3 My library_Search       2114      6451 0.328
## 4 Discover New            5277     15955 0.331
## 5 My library             25559     75980 0.336
## #  with 18 more rows
…
Source system tab

test_train_plot(train, test, col_name = "source_type", "Source Type", "Test/Train Count")

## # A tibble: 13 x 4
##   source_type     test_cnt train_cnt ratio
##   <chr>              <int>     <int> <dbl>
## 1 artist               428      3038 0.141
## 2 local-library     582346   2261399 0.258
## 3 local-playlist    294537   1079503 0.273
## 4 ""                  7297     21539 0.339
## 5 online-playlist   774532   1967924 0.394
## #  with 8 more rows
…
